"1527110176-231","https://motos.coches.net/ocasion/?pg=12&MaxPrice=2000&Tops=1&or=-1&fi=SortDate","HONDA PCX 125","1.999 €","3.139 km","125 cc","Madrid","2015"
"1527110163-90","https://motos.coches.net/ocasion/?pg=17&MaxPrice=2000&Tops=1&or=-1&fi=SortDate","HONDA XL 125 Varadero","1.990 €","55.000 km","124 cc","Madrid","2005"
"1527110200-473","https://motos.coches.net/ocasion/?pg=3&MaxPrice=2000&Tops=1&or=-1&fi=SortDate","HONDA SCOOPY SH125i","1.455 €","26.400 km","125 cc","Barcelona","2006"
"1527110192-400","https://motos.coches.net/ocasion/?pg=6&MaxPrice=2000&Tops=1&or=-1&fi=SortDate","HONDA CB 250 TWO FIFTY","1.600 €","25.625 km","237 cc","Barcelona","1994"
"1527110166-110","https://motos.coches.net/ocasion/?pg=16&MaxPrice=2000&Tops=1&or=-1&fi=SortDate","HONDA CB 500","1.850 €","48.000 km","499 cc","Madrid","2002"
"1527110173-206","https://motos.coches.net/ocasion/?pg=13&MaxPrice=2000&Tops=1&or=-1&fi=SortDate","HONDA CB 250 F","1.200 €","26.000 km","250 cc","Valencia","2004"
"1527110173-191","https://motos.coches.net/ocasion/?pg=13&MaxPrice=2000&Tops=1&or=-1&fi=SortDate","HONDA CMX Rebel 250","1.795 €","18.256 km","234 cc","Murcia","1999"
"1527110181-289","https://motos.coches.net/ocasion/?pg=10&MaxPrice=2000&Tops=1&or=-1&fi=SortDate","HONDA @ 125","700 €","27.000 km","124 cc","Granada","2007"
"1527110161-51","https://motos.coches.net/ocasion/?pg=18&MaxPrice=2000&Tops=1&or=-1&fi=SortDate","HONDA CB 250 TWO FIFTY","1.590 €","13.266 km","234 cc","Cáceres","2002"
"1527110166-124","https://motos.coches.net/ocasion/?pg=16&MaxPrice=2000&Tops=1&or=-1&fi=SortDate","HONDA SCOOPY 75","900 €","30.000 km","75 cc","Salamanca","1995"
"1527110192-391","https://motos.coches.net/ocasion/?pg=6&MaxPrice=2000&Tops=1&or=-1&fi=SortDate","HONDA PCX 125","1.999 €","17.442 km","125 cc","Valencia","2014"
"1527110190-348","https://motos.coches.net/ocasion/?pg=7&MaxPrice=2000&Tops=1&or=-1&fi=SortDate","HONDA @ 125","1.500 €","27.000 km","124 cc","Barcelona","2012"
"1527110198-443","https://motos.coches.net/ocasion/?pg=4&MaxPrice=2000&Tops=1&or=-1&fi=SortDate","HONDA Vision","1.700 €","400 km","108 cc","Madrid","2018"
"1527110203-519","https://motos.coches.net/ocasion/?pg=2&MaxPrice=2000&Tops=1&or=-1&fi=SortDate","HONDA CBR 1100 XX","1.799 €","70.000 km","1.137 cc","Madrid","1998"
"1527110203-498","https://motos.coches.net/ocasion/?pg=2&MaxPrice=2000&Tops=1&or=-1&fi=SortDate","HONDA SCOOPY SH125i","1.795 €","53.200 km","125 cc","Barcelona","2005"
"1527110198-458","https://motos.coches.net/ocasion/?pg=4&MaxPrice=2000&Tops=1&or=-1&fi=SortDate","HONDA CBF 125","900 €","53.500 km","125 cc","Málaga","2010"
"1527110163-101","https://motos.coches.net/ocasion/?pg=17&MaxPrice=2000&Tops=1&or=-1&fi=SortDate","HONDA New Pantheon 150","1.199 €","45.400 km","150 cc","Madrid","2004"
"1527110200-477","https://motos.coches.net/ocasion/?pg=3&MaxPrice=2000&Tops=1&or=-1&fi=SortDate","HONDA VTR 250","2.000 €","46.000 km","250 cc","Barcelona","2000"
"1527110161-52","https://motos.coches.net/ocasion/?pg=18&MaxPrice=2000&Tops=1&or=-1&fi=SortDate","HONDA CBF 250","1.490 €","30.144 km","249 cc","Cáceres","2006"
"1527110195-403","https://motos.coches.net/ocasion/?pg=5&MaxPrice=2000&Tops=1&or=-1&fi=SortDate","HONDA PANTHEON 125","999 €","32.000 km","125 cc","Castellón","2007"
"1527110192-387","https://motos.coches.net/ocasion/?pg=6&MaxPrice=2000&Tops=1&or=-1&fi=SortDate","HONDA DYLAN 125","1.299 €","20.469 km","125 cc","Barcelona","2003"
"1527110203-508","https://motos.coches.net/ocasion/?pg=2&MaxPrice=2000&Tops=1&or=-1&fi=SortDate","HONDA CBF 250","1.100 €","36.400 km","249 cc","Madrid","2005"
"1527110190-361","https://motos.coches.net/ocasion/?pg=7&MaxPrice=2000&Tops=1&or=-1&fi=SortDate","HONDA Lead 110","950 €","32.000 km","108 cc","Cádiz","2009"
"1527110155-5","https://motos.coches.net/ocasion/?pg=20&MaxPrice=2000&Tops=1&or=-1&fi=SortDate","HONDA Passion 125 I.E.","1.300 €","27.600 km","124 cc","Málaga","2006"
"1527110178-249","https://motos.coches.net/ocasion/?pg=11&MaxPrice=2000&Tops=1&or=-1&fi=SortDate","HONDA NSR 125 F","950 €","34.000 km","125 cc","Madrid","2008"
"1527110195-432","https://motos.coches.net/ocasion/?pg=5&MaxPrice=2000&Tops=1&or=-1&fi=SortDate","HONDA PCX 125","1.950 €","6.805 km","125 cc","Lleida","2011"
"1527110161-67","https://motos.coches.net/ocasion/?pg=18&MaxPrice=2000&Tops=1&or=-1&fi=SortDate","HONDA CB 500","1.700 €","32.000 km","499 cc","Asturias","2002"
"1527110181-293","https://motos.coches.net/ocasion/?pg=10&MaxPrice=2000&Tops=1&or=-1&fi=SortDate","HONDA FORZA 250 X","1.900 €","37.000 km","249 cc","Valencia","2008"
"1527110178-242","https://motos.coches.net/ocasion/?pg=11&MaxPrice=2000&Tops=1&or=-1&fi=SortDate","HONDA DYLAN 125","1.200 €","40.446 km","125 cc","Barcelona","2006"
"1527110171-184","https://motos.coches.net/ocasion/?pg=14&MaxPrice=2000&Tops=1&or=-1&fi=SortDate","HONDA CBR 1000 F","1.650 €","65.350 km","1.000 cc","Madrid","1990"
"1527110161-53","https://motos.coches.net/ocasion/?pg=18&MaxPrice=2000&Tops=1&or=-1&fi=SortDate","HONDA CB 250 TWO FIFTY","1.499 €","32.797 km","234 cc","Madrid","2000"
"1527110181-280","https://motos.coches.net/ocasion/?pg=10&MaxPrice=2000&Tops=1&or=-1&fi=SortDate","HONDA Vision","1.999 €","1.405 km","108 cc","Cádiz","2016"
"1527110187-337","https://motos.coches.net/ocasion/?pg=8&MaxPrice=2000&Tops=1&or=-1&fi=SortDate","HONDA SCOOPY SH125","1.950 €","21.200 km","125 cc","Barcelona","2005"
"1527110155-20","https://motos.coches.net/ocasion/?pg=20&MaxPrice=2000&Tops=1&or=-1&fi=SortDate","HONDA XL 125 Varadero","1.890 €","26.800 km","124 cc","Murcia","2002"
"1527110200-480","https://motos.coches.net/ocasion/?pg=3&MaxPrice=2000&Tops=1&or=-1&fi=SortDate","HONDA CBF 125","1.800 €","14.000 km","125 cc","Barcelona","2014"
"1527110200-464","https://motos.coches.net/ocasion/?pg=3&MaxPrice=2000&Tops=1&or=-1&fi=SortDate","HONDA S-WING 150","1.490 €","40.000 km","150 cc","Barcelona","2009"
"1527110163-74","https://motos.coches.net/ocasion/?pg=17&MaxPrice=2000&Tops=1&or=-1&fi=SortDate","HONDA CB 250 F","700 €","61.853 km","250 cc","Alicante","2005"
"1527110168-142","https://motos.coches.net/ocasion/?pg=15&MaxPrice=2000&Tops=1&or=-1&fi=SortDate","HONDA SCOOPY 75","850 €","24.000 km","75 cc","Barcelona","1992"
"1527110171-178","https://motos.coches.net/ocasion/?pg=14&MaxPrice=2000&Tops=1&or=-1&fi=SortDate","HONDA CBF 250","1.300 €","17.000 km","249 cc","León","2006"
"1527110173-211","https://motos.coches.net/ocasion/?pg=13&MaxPrice=2000&Tops=1&or=-1&fi=SortDate","HONDA CBF 250","1.200 €","31.000 km","249 cc","Guadalajara","2006"
"1527110190-366","https://motos.coches.net/ocasion/?pg=7&MaxPrice=2000&Tops=1&or=-1&fi=SortDate","HONDA CB 125 F","1.900 €","8.000 km","125 cc","Las Palmas","2016"
"1527110190-357","https://motos.coches.net/ocasion/?pg=7&MaxPrice=2000&Tops=1&or=-1&fi=SortDate","HONDA CB 250 TWO FIFTY","1.700 €","60.000 km","234 cc","Barcelona","2003"
"1527110173-199","https://motos.coches.net/ocasion/?pg=13&MaxPrice=2000&Tops=1&or=-1&fi=SortDate","HONDA Innova 125","950 €","33.000 km","125 cc","Barcelona","2004"
"1527110171-183","https://motos.coches.net/ocasion/?pg=14&MaxPrice=2000&Tops=1&or=-1&fi=SortDate","HONDA Vision 110","1.650 €","1.086 km","110 cc","Valencia","2016"
"1527110166-115","https://motos.coches.net/ocasion/?pg=16&MaxPrice=2000&Tops=1&or=-1&fi=SortDate","HONDA PCX 125","1.500 €","38.000 km","125 cc","Sevilla","2010"
"1527110205-521","https://motos.coches.net/ocasion/?pg=1&MaxPrice=2000&Tops=1&or=-1&fi=SortDate","HONDA CB 125 F","1.500 €","2.985 km","125 cc","Alicante","2014"
"1527110184-311","https://motos.coches.net/ocasion/?pg=9&MaxPrice=2000&Tops=1&or=-1&fi=SortDate","HONDA XR 250","1.900 €","13.000 km","249 cc","Navarra","2008"
"1527110184-316","https://motos.coches.net/ocasion/?pg=9&MaxPrice=2000&Tops=1&or=-1&fi=SortDate","HONDA S-WING 125","1.800 €","21.800 km","125 cc","Girona","2007"
"1527110190-358","https://motos.coches.net/ocasion/?pg=7&MaxPrice=2000&Tops=1&or=-1&fi=SortDate","HONDA FORZA 250 X","1.999 €","28.800 km","250 cc","Barcelona","2005"
"1527110171-174","https://motos.coches.net/ocasion/?pg=14&MaxPrice=2000&Tops=1&or=-1&fi=SortDate","HONDA NT 650 V DEAUVILLE","2.000 €","54.000 km","647 cc","Vizcaya","2001"
"1527110181-278","https://motos.coches.net/ocasion/?pg=10&MaxPrice=2000&Tops=1&or=-1&fi=SortDate","HONDA SCOOPY SH125i","1.699 €","36.342 km","125 cc","Barcelona","2009"
"1527110178-240","https://motos.coches.net/ocasion/?pg=11&MaxPrice=2000&Tops=1&or=-1&fi=SortDate","HONDA PCX 125","1.600 €","19.000 km","125 cc","Sevilla","2010"
"1527110203-509","https://motos.coches.net/ocasion/?pg=2&MaxPrice=2000&Tops=1&or=-1&fi=SortDate","HONDA CBF 125","1.400 €","31.000 km","125 cc","Pontevedra","2013"
"1527110205-527","https://motos.coches.net/ocasion/?pg=1&MaxPrice=2000&Tops=1&or=-1&fi=SortDate","HONDA CB 600 F","1.500 €","80.155 km","599 cc","Tarragona","2006"
"1527110200-469","https://motos.coches.net/ocasion/?pg=3&MaxPrice=2000&Tops=1&or=-1&fi=SortDate","HONDA CBR 600F","950 €","82.000 km","600 cc","Madrid","1992"
"1527110205-532","https://motos.coches.net/ocasion/?pg=1&MaxPrice=2000&Tops=1&or=-1&fi=SortDate","HONDA CBR 600","1.700 €","50.000 km","600 cc","Granada","1992"
"1527110184-313","https://motos.coches.net/ocasion/?pg=9&MaxPrice=2000&Tops=1&or=-1&fi=SortDate","HONDA SCOOPY SH300i TopBox","1.450 €","98.000 km","279 cc","Barcelona","2007"
"1527110155-15","https://motos.coches.net/ocasion/?pg=20&MaxPrice=2000&Tops=1&or=-1&fi=SortDate","HONDA Passion 150 I.E.","1.200 €","22.500 km","153 cc","Madrid","2006"
"1527110171-175","https://motos.coches.net/ocasion/?pg=14&MaxPrice=2000&Tops=1&or=-1&fi=SortDate","HONDA NTV 650 REVERE","1.000 €","77.000 km","650 cc","Barcelona","1993"
"1527110184-300","https://motos.coches.net/ocasion/?pg=9&MaxPrice=2000&Tops=1&or=-1&fi=SortDate","HONDA SCOOPY SH150i Confort","1.100 €","49.800 km","153 cc","Guipúzcoa","2007"
"1527110192-396","https://motos.coches.net/ocasion/?pg=6&MaxPrice=2000&Tops=1&or=-1&fi=SortDate","HONDA CB 250 TWO FIFTY","1.590 €","28.900 km","234 cc","Madrid","2001"
"1527110181-284","https://motos.coches.net/ocasion/?pg=10&MaxPrice=2000&Tops=1&or=-1&fi=SortDate","HONDA SCOOPY SH300i C-ABS","1.599 €","84.000 km","279 cc","Málaga","2008"
"1527110161-50","https://motos.coches.net/ocasion/?pg=18&MaxPrice=2000&Tops=1&or=-1&fi=SortDate","HONDA CB 250 F","1.590 €","13.266 km","250 cc","Cáceres","2002"
"1527110200-471","https://motos.coches.net/ocasion/?pg=3&MaxPrice=2000&Tops=1&or=-1&fi=SortDate","HONDA Vision 110","1.850 €","5.330 km","110 cc","Huelva","2013"
"1527110166-107","https://motos.coches.net/ocasion/?pg=16&MaxPrice=2000&Tops=1&or=-1&fi=SortDate","HONDA SCOOPY SH150i","1.800 €","36.292 km","153 cc","Barcelona","2008"
"1527110200-485","https://motos.coches.net/ocasion/?pg=3&MaxPrice=2000&Tops=1&or=-1&fi=SortDate","HONDA CBF 250","1.000 €","62.180 km","249 cc","Málaga","2004"
"1527110155-10","https://motos.coches.net/ocasion/?pg=20&MaxPrice=2000&Tops=1&or=-1&fi=SortDate","HONDA SCOOPY 100","900 €","38.308 km","101 cc","Girona","2000"
"1527110198-445","https://motos.coches.net/ocasion/?pg=4&MaxPrice=2000&Tops=1&or=-1&fi=SortDate","HONDA CB 500","1.250 €","68.000 km","499 cc","Barcelona","2001"
"1527110184-317","https://motos.coches.net/ocasion/?pg=9&MaxPrice=2000&Tops=1&or=-1&fi=SortDate","HONDA CB 125 F","1.650 €","11.300 km","125 cc","Murcia","2014"
"1527110161-72","https://motos.coches.net/ocasion/?pg=18&MaxPrice=2000&Tops=1&or=-1&fi=SortDate","HONDA CB 500","1.700 €","39.000 km","499 cc","Zaragoza","1998"
"1527110203-513","https://motos.coches.net/ocasion/?pg=2&MaxPrice=2000&Tops=1&or=-1&fi=SortDate","HONDA Vision 110","1.650 €","3.700 km","110 cc","Zaragoza","2017"
"1527110176-214","https://motos.coches.net/ocasion/?pg=12&MaxPrice=2000&Tops=1&or=-1&fi=SortDate","HONDA CRM 80","700 €","46.000 km","80 cc","Zaragoza","1989"
"1527110200-470","https://motos.coches.net/ocasion/?pg=3&MaxPrice=2000&Tops=1&or=-1&fi=SortDate","HONDA SCOOPY SH125i","1.450 €","59.000 km","125 cc","Barcelona","2006"
"1527110181-286","https://motos.coches.net/ocasion/?pg=10&MaxPrice=2000&Tops=1&or=-1&fi=SortDate","HONDA FORZA 250 X","1.990 €","60.400 km","250 cc","Valencia","2007"
"1527110192-399","https://motos.coches.net/ocasion/?pg=6&MaxPrice=2000&Tops=1&or=-1&fi=SortDate","HONDA Transalp XL 600 V","1.900 €","82.000 km","583 cc","Madrid","1994"
"1527110168-135","https://motos.coches.net/ocasion/?pg=15&MaxPrice=2000&Tops=1&or=-1&fi=SortDate","HONDA Wallaroo 50","750 €","4.500 km","49 cc","Guipúzcoa","1998"
"1527110192-398","https://motos.coches.net/ocasion/?pg=6&MaxPrice=2000&Tops=1&or=-1&fi=SortDate","HONDA SCOOPY SH125i","1.650 €","56.000 km","125 cc","Barcelona","2007"
"1527110203-515","https://motos.coches.net/ocasion/?pg=2&MaxPrice=2000&Tops=1&or=-1&fi=SortDate","HONDA Passion 125i","1.590 €","21.000 km","125 cc","Barcelona","2006"
"1527110171-177","https://motos.coches.net/ocasion/?pg=14&MaxPrice=2000&Tops=1&or=-1&fi=SortDate","HONDA CBR 600F","2.000 €","50.000 km","599 cc","Tarragona","2001"
"1527110184-296","https://motos.coches.net/ocasion/?pg=9&MaxPrice=2000&Tops=1&or=-1&fi=SortDate","HONDA SCOOPY 75","850 €","32.715 km","75 cc","Barcelona","1990"
"1527110181-285","https://motos.coches.net/ocasion/?pg=10&MaxPrice=2000&Tops=1&or=-1&fi=SortDate","HONDA SCOOPY SH150i","1.490 €","28.594 km","152 cc","Valencia","2005"
"1527110158-43","https://motos.coches.net/ocasion/?pg=19&MaxPrice=2000&Tops=1&or=-1&fi=SortDate","HONDA Shadow VT 125 C","2.000 €","12.000 km","125 cc","Huelva","2005"
"1527110203-507","https://motos.coches.net/ocasion/?pg=2&MaxPrice=2000&Tops=1&or=-1&fi=SortDate","HONDA CBR 600 RR","2.000 €","29.000 km","600 cc","Barcelona","2010"
"1527110187-322","https://motos.coches.net/ocasion/?pg=8&MaxPrice=2000&Tops=1&or=-1&fi=SortDate","HONDA Lead 100","600 €","47.000 km","100 cc","Barcelona","2004"
"1527110190-349","https://motos.coches.net/ocasion/?pg=7&MaxPrice=2000&Tops=1&or=-1&fi=SortDate","HONDA CBF 125","1.995 €","16.558 km","125 cc","Alicante","2014"
"1527110187-340","https://motos.coches.net/ocasion/?pg=8&MaxPrice=2000&Tops=1&or=-1&fi=SortDate","HONDA SCOOPY 100","890 €","28.900 km","101 cc","Barcelona","2000"
"1527110195-422","https://motos.coches.net/ocasion/?pg=5&MaxPrice=2000&Tops=1&or=-1&fi=SortDate","HONDA CB 250 TWO FIFTY","750 €","70.000 km","234 cc","Madrid","2001"
"1527110173-208","https://motos.coches.net/ocasion/?pg=13&MaxPrice=2000&Tops=1&or=-1&fi=SortDate","HONDA CB 600 F","1.850 €","60.000 km","599 cc","Barcelona","1999"
"1527110171-188","https://motos.coches.net/ocasion/?pg=14&MaxPrice=2000&Tops=1&or=-1&fi=SortDate","HONDA CBR 1000RR","1.500 €","44.000 km","998 cc","Valencia","2004"
"1527110176-238","https://motos.coches.net/ocasion/?pg=12&MaxPrice=2000&Tops=1&or=-1&fi=SortDate","HONDA CB 250 TWO FIFTY","1.150 €","37.100 km","234 cc","Barcelona","2000"
"1527110195-411","https://motos.coches.net/ocasion/?pg=5&MaxPrice=2000&Tops=1&or=-1&fi=SortDate","HONDA CBF 250","1.450 €","35.300 km","249 cc","Tarragona","2007"
"1527110184-308","https://motos.coches.net/ocasion/?pg=9&MaxPrice=2000&Tops=1&or=-1&fi=SortDate","HONDA CB 125 F","1.750 €","4.900 km","125 cc","Vizcaya","2015"
"1527110163-77","https://motos.coches.net/ocasion/?pg=17&MaxPrice=2000&Tops=1&or=-1&fi=SortDate","HONDA CB 250 TWO FIFTY","1.500 €","26.567 km","237 cc","Pontevedra","1993"
"1527110184-301","https://motos.coches.net/ocasion/?pg=9&MaxPrice=2000&Tops=1&or=-1&fi=SortDate","HONDA S-WING 125","1.490 €","48.000 km","125 cc","Alicante","2007"
"1527110155-18","https://motos.coches.net/ocasion/?pg=20&MaxPrice=2000&Tops=1&or=-1&fi=SortDate","HONDA VFR 800 FI ABS","N/D","48.525 km","781 cc","Málaga","2006"
"1527110178-256","https://motos.coches.net/ocasion/?pg=11&MaxPrice=2000&Tops=1&or=-1&fi=SortDate","HONDA CBR 600F","900 €","74.000 km","600 cc","Murcia","1992"
"1527110178-262","https://motos.coches.net/ocasion/?pg=11&MaxPrice=2000&Tops=1&or=-1&fi=SortDate","HONDA VTR 250","2.000 €","60.000 km","250 cc","Pontevedra","2000"
"1527110198-440","https://motos.coches.net/ocasion/?pg=4&MaxPrice=2000&Tops=1&or=-1&fi=SortDate","HONDA Lead 110","1.390 €","35.000 km","108 cc","Barcelona","2011"
"1527110190-364","https://motos.coches.net/ocasion/?pg=7&MaxPrice=2000&Tops=1&or=-1&fi=SortDate","HONDA Passion 125 I.E.","999 €","43.968 km","124 cc","Madrid","2007"
